<?xml version="1.0" encoding="iso-8859-1"?>
<!-- Generator: Adobe Illustrator 16.0.0, SVG Export Plug-In . SVG Version: 6.00 Build 0)  -->
<!DOCTYPE svg PUBLIC "-//W3C//DTD SVG 1.1//EN" "http://www.w3.org/Graphics/SVG/1.1/DTD/svg11.dtd">
<svg version="1.1" id="Capa_1" xmlns="http://www.w3.org/2000/svg" xmlns:xlink="http://www.w3.org/1999/xlink" x="0px" y="0px"
	 width="478.917px" height="478.917px" viewBox="0 0 478.917 478.917" style="enable-background:new 0 0 478.917 478.917;"
	 xml:space="preserve">
<g>
	<g>
		<polygon points="182.505,478.917 239.458,478.917 296.412,478.917 334.085,468.814 392.871,389.82 309.336,212.416 
			308.326,215.006 306.607,219.497 301.822,219.998 240.274,226.43 239.458,226.514 238.641,226.43 177.095,219.998 
			172.312,219.497 170.587,215.006 169.583,212.416 86.046,389.82 144.835,468.814 		"/>
		<polygon points="241.302,192.729 239.458,193.166 237.615,192.729 199.823,183.59 173.32,200.245 174.213,202.579 
			177.913,212.185 239.458,218.625 301.004,212.185 304.708,202.579 305.597,200.245 279.092,183.59 		"/>
		<path d="M198.447,175.181l5.324,1.288l9.269,2.238l26.411,6.382l26.4-6.382l9.277-2.238l5.322-1.288l55.903-13.509
			c0,0,5.979-75.326-28.473-75.326c0,0,25.72-56.489-68.438-86.346c-94.159,29.857-68.441,86.346-68.441,86.346
			c-34.446,0-28.48,75.326-28.48,75.326L198.447,175.181z"/>
	</g>
</g>
<g>
</g>
<g>
</g>
<g>
</g>
<g>
</g>
<g>
</g>
<g>
</g>
<g>
</g>
<g>
</g>
<g>
</g>
<g>
</g>
<g>
</g>
<g>
</g>
<g>
</g>
<g>
</g>
<g>
</g>
</svg>
