<?xml version="1.0" encoding="iso-8859-1"?>
<!-- Generator: Adobe Illustrator 16.0.0, SVG Export Plug-In . SVG Version: 6.00 Build 0)  -->
<!DOCTYPE svg PUBLIC "-//W3C//DTD SVG 1.1//EN" "http://www.w3.org/Graphics/SVG/1.1/DTD/svg11.dtd">
<svg version="1.1" id="Capa_1" xmlns="http://www.w3.org/2000/svg" xmlns:xlink="http://www.w3.org/1999/xlink" x="0px" y="0px"
	 width="314.644px" height="314.644px" viewBox="0 0 314.644 314.644" style="enable-background:new 0 0 314.644 314.644;"
	 xml:space="preserve">
<g>
	<g>
		<path d="M251.2,110.395l-13.406-8.673h-40.726c-12.418-14.556,0.217-30.755,0.217-30.755v-7.884h42.29
			c5.229,0,9.466-4.235,9.466-9.466V18.775c0-2.879-1.315-5.424-3.34-7.159l0,0C242.361,4.458,214.632,0,214.632,0h-57.316H99.999
			c0,0-27.727,4.458-31.069,11.617c-2.025,1.735-3.34,4.285-3.34,7.164v34.841c0,5.23,4.236,9.466,9.465,9.466h42.292v7.883
			c0,0,12.629,16.2,0.217,30.756H76.842l-13.404,8.673l-32.334,37.855c0,0-11.83,45.739-8.676,106.458
			c0,0,13.406,36.272,32.335,59.932h99.945h5.228h99.943c18.926-23.659,32.337-59.932,32.337-59.932
			c3.153-60.725-8.679-106.458-8.679-106.458L251.2,110.395z"/>
	</g>
</g>
<g>
</g>
<g>
</g>
<g>
</g>
<g>
</g>
<g>
</g>
<g>
</g>
<g>
</g>
<g>
</g>
<g>
</g>
<g>
</g>
<g>
</g>
<g>
</g>
<g>
</g>
<g>
</g>
<g>
</g>
</svg>
