<?xml version="1.0" encoding="iso-8859-1"?>
<!-- Generator: Adobe Illustrator 16.0.0, SVG Export Plug-In . SVG Version: 6.00 Build 0)  -->
<!DOCTYPE svg PUBLIC "-//W3C//DTD SVG 1.1//EN" "http://www.w3.org/Graphics/SVG/1.1/DTD/svg11.dtd">
<svg version="1.1" id="Capa_1" xmlns="http://www.w3.org/2000/svg" xmlns:xlink="http://www.w3.org/1999/xlink" x="0px" y="0px"
	 width="272.161px" height="272.161px" viewBox="0 0 272.161 272.161" style="enable-background:new 0 0 272.161 272.161;"
	 xml:space="preserve">
<g>
	<g>
		<path d="M263.101,214.085c-3.164-5.784-5.737-15.829-5.737-22.432V94.018c0-6.595,2.459-16.707,5.483-22.571l7.55-14.621
			c3.023-5.862,2.065-14.74-2.154-19.825l-21.759-26.284c-4.215-5.079-11.702-5.737-16.746-1.468l-27.429,23.255
			c-5.038,4.27-14.473,7.731-21.069,7.731h-43.302h-3.708H90.931c-6.602,0-16.034-3.461-21.072-7.731L42.425,9.25
			c-5.043-4.27-12.529-3.611-16.746,1.468L3.917,37.001c-4.22,5.085-5.178,13.963-2.151,19.825l7.55,14.621
			c3.024,5.859,5.483,15.977,5.483,22.571v97.631c0,6.602-2.571,16.652-5.737,22.432L2.02,226.979
			c-3.164,5.784-1.717,14.027,3.218,18.403l19.115,16.901c4.948,4.381,13.15,4.608,18.336,0.523l32.871-25.901
			c5.181-4.091,14.734-7.405,21.336-7.405h36.853h4.65h36.85c6.603,0,16.161,3.319,21.339,7.405l32.871,25.901
			c5.178,4.085,13.386,3.862,18.336-0.523l19.112-16.901c4.945-4.37,6.385-12.619,3.221-18.403L263.101,214.085z M191.441,218.156
			c-0.124,0-0.233-0.005-0.353-0.021l-36.796-4.878c-1.455-0.197-2.479-1.527-2.288-2.982c0.196-1.461,1.553-2.47,2.982-2.284
			l36.79,4.878c1.455,0.197,2.476,1.527,2.289,2.978C193.885,217.187,192.746,218.156,191.441,218.156z M198.876,59.511h-37.117
			c-1.46,0-2.651-1.188-2.651-2.651s1.191-2.651,2.651-2.651h37.117c1.466,0,2.651,1.188,2.651,2.651S200.347,59.511,198.876,59.511
			z M243.895,192.074c0,0.383-0.088,0.771-0.248,1.123l-13.153,28.056c-0.455,0.963-1.413,1.527-2.402,1.527
			c-0.378,0-0.761-0.083-1.124-0.254c-1.325-0.616-1.9-2.195-1.278-3.521l12.903-27.521v-5.54c0-1.466,1.191-2.651,2.651-2.651
			c1.466,0,2.651,1.186,2.651,2.651V192.074z M243.895,148.821c0,1.46-1.186,2.651-2.651,2.651c-1.46,0-2.651-1.191-2.651-2.651
			v-37.12c0-1.462,1.191-2.651,2.651-2.651c1.466,0,2.651,1.188,2.651,2.651V148.821z M243.895,74.584
			c0,1.463-1.186,2.651-2.651,2.651c-1.46,0-2.651-1.188-2.651-2.651V48.021l-3.34,0.976c-1.434,0.407-2.884-0.398-3.288-1.799
			c-0.414-1.409,0.394-2.879,1.797-3.286l6.742-1.967c0.803-0.238,1.657-0.085,2.33,0.419c0.668,0.502,1.062,1.287,1.062,2.12
			V74.584z"/>
	</g>
</g>
<g>
</g>
<g>
</g>
<g>
</g>
<g>
</g>
<g>
</g>
<g>
</g>
<g>
</g>
<g>
</g>
<g>
</g>
<g>
</g>
<g>
</g>
<g>
</g>
<g>
</g>
<g>
</g>
<g>
</g>
</svg>
