<?xml version="1.0" encoding="iso-8859-1"?>
<!-- Generator: Adobe Illustrator 16.0.0, SVG Export Plug-In . SVG Version: 6.00 Build 0)  -->
<!DOCTYPE svg PUBLIC "-//W3C//DTD SVG 1.1//EN" "http://www.w3.org/Graphics/SVG/1.1/DTD/svg11.dtd">
<svg version="1.1" id="Capa_1" xmlns="http://www.w3.org/2000/svg" xmlns:xlink="http://www.w3.org/1999/xlink" x="0px" y="0px"
	 width="296.551px" height="296.551px" viewBox="0 0 296.551 296.551" style="enable-background:new 0 0 296.551 296.551;"
	 xml:space="preserve">
<g>
	<g>
		<path d="M148.275,0C66.386,0,0,66.381,0,148.275c0,81.887,66.386,148.275,148.275,148.275
			c81.892,0,148.276-66.389,148.276-148.275C296.551,66.381,230.167,0,148.275,0z M33.07,108c-0.388,1.082-1.411,1.755-2.498,1.755
			c-0.3,0-0.598-0.049-0.896-0.155c-1.377-0.497-2.094-2.014-1.6-3.392c13.054-36.306,41.422-64.431,77.843-77.167
			c1.385-0.477,2.902,0.249,3.379,1.628c0.486,1.383-0.244,2.895-1.629,3.376C73.283,46.067,45.394,73.716,33.07,108z
			 M111.853,197.41c-9.194,0-16.65-7.451-16.65-16.652c0-9.196,7.451-16.647,16.65-16.647c9.194,0,16.65,7.451,16.65,16.647
			C128.503,189.959,121.051,197.41,111.853,197.41z M112.945,132.428c-9.189,0-16.65-7.449-16.65-16.65
			c0-9.188,7.457-16.647,16.65-16.647s16.65,7.454,16.65,16.647C129.595,124.979,122.144,132.428,112.945,132.428z M183.617,197.41
			c-9.197,0-16.653-7.451-16.653-16.652c0-9.196,7.456-16.647,16.653-16.647c9.186,0,16.652,7.451,16.652,16.647
			C200.258,189.959,192.802,197.41,183.617,197.41z M184.708,132.428c-9.196,0-16.647-7.449-16.647-16.65
			c0-9.188,7.446-16.647,16.647-16.647c9.191,0,16.648,7.454,16.648,16.647C201.351,124.979,193.9,132.428,184.708,132.428z"/>
	</g>
</g>
<g>
</g>
<g>
</g>
<g>
</g>
<g>
</g>
<g>
</g>
<g>
</g>
<g>
</g>
<g>
</g>
<g>
</g>
<g>
</g>
<g>
</g>
<g>
</g>
<g>
</g>
<g>
</g>
<g>
</g>
</svg>
