<?xml version="1.0" encoding="iso-8859-1"?>
<!-- Generator: Adobe Illustrator 16.0.0, SVG Export Plug-In . SVG Version: 6.00 Build 0)  -->
<!DOCTYPE svg PUBLIC "-//W3C//DTD SVG 1.1//EN" "http://www.w3.org/Graphics/SVG/1.1/DTD/svg11.dtd">
<svg version="1.1" id="Capa_1" xmlns="http://www.w3.org/2000/svg" xmlns:xlink="http://www.w3.org/1999/xlink" x="0px" y="0px"
	 width="320.168px" height="320.168px" viewBox="0 0 320.168 320.168" style="enable-background:new 0 0 320.168 320.168;"
	 xml:space="preserve">
<g>
	<g>
		<path d="M235.301,80.538c-18.807,0-30.623-11.819-30.623-11.819h-6.722c0.694-1.284,1.129-2.731,1.129-4.301
			c0-4.984-4.039-9.025-9.021-9.025h-1.615V9.452c0-5.222-4.23-9.452-9.455-9.452h-37.824c-5.222,0-9.456,4.23-9.456,9.452v45.94
			h-1.61c-4.986,0-9.025,4.042-9.025,9.025c0,1.564,0.435,3.017,1.134,4.301h-6.724c0,0-11.819,11.819-30.626,11.819
			c-18.807,0-19.343,59.1-19.343,113.906s0.536,113.903,19.343,113.903c18.807,0,30.626,11.821,30.626,11.821h44.594h44.594
			c0,0,11.816-11.821,30.623-11.821s19.346-59.098,19.346-113.903S254.108,80.538,235.301,80.538z"/>
	</g>
</g>
<g>
</g>
<g>
</g>
<g>
</g>
<g>
</g>
<g>
</g>
<g>
</g>
<g>
</g>
<g>
</g>
<g>
</g>
<g>
</g>
<g>
</g>
<g>
</g>
<g>
</g>
<g>
</g>
<g>
</g>
</svg>
