<?xml version="1.0" encoding="iso-8859-1"?>
<!-- Generator: Adobe Illustrator 16.0.0, SVG Export Plug-In . SVG Version: 6.00 Build 0)  -->
<!DOCTYPE svg PUBLIC "-//W3C//DTD SVG 1.1//EN" "http://www.w3.org/Graphics/SVG/1.1/DTD/svg11.dtd">
<svg version="1.1" id="Capa_1" xmlns="http://www.w3.org/2000/svg" xmlns:xlink="http://www.w3.org/1999/xlink" x="0px" y="0px"
	 width="413.541px" height="413.541px" viewBox="0 0 413.541 413.541" style="enable-background:new 0 0 413.541 413.541;"
	 xml:space="preserve">
<g>
	<g>
		<path d="M370.008,88.69c24.053,0,43.533-6.336,43.533-14.156c0-7.809-19.473-14.145-43.533-14.145H43.529
			C19.477,60.389,0,66.725,0,74.534c0,7.82,19.477,14.156,43.529,14.156h72.546v6.171H43.529C19.477,94.861,0,114.345,0,138.39
			v171.233c0,24.04,19.477,43.528,43.529,43.528h326.479c24.053,0,43.533-19.488,43.533-43.528V138.39
			c0-24.037-19.473-43.529-43.533-43.529h-72.555V88.69H370.008z M35.184,132.99c0-9.618,7.804-17.41,17.414-17.41h130.598
			c9.624,0,17.414,7.792,17.414,17.41v52.235c0,9.618-7.791,17.415-17.414,17.415H52.598c-9.61,0-17.414-7.797-17.414-17.415V132.99
			z M35.184,285.334v-52.229c0-9.621,7.804-17.42,17.414-17.42h130.598c9.624,0,17.414,7.799,17.414,17.42v52.229
			c0,9.622-7.791,17.42-17.414,17.42H52.598C42.988,302.754,35.184,294.957,35.184,285.334z M283.848,342.372
			c-3.062,1.735-6.868,3.07-11.385,3.07c-13.016,0-18.218-5.538-18.218-5.538v-5.198h-91.734v5.198c0,0-5.198,5.538-18.204,5.538
			c-4.517,0-8.337-1.335-11.385-3.07c-5.73-3.27-8.786-10.171-8.786-12.871c0-2.689,3.056-9.574,8.786-12.856
			c3.048-1.747,6.869-3.098,11.385-3.098c13.006,0,18.204,5.538,18.204,5.538v5.206h91.734v-5.206c0,0,5.202-5.538,18.218-5.538
			c4.517,0,8.34,1.351,11.385,3.098c5.743,3.282,8.777,10.167,8.777,12.856C292.625,332.201,289.591,339.102,283.848,342.372z
			 M378.352,285.334c0,9.622-7.791,17.42-17.421,17.42H230.345c-9.605,0-17.412-7.798-17.412-17.42v-52.229
			c0-9.621,7.807-17.42,17.412-17.42h130.586c9.63,0,17.421,7.799,17.421,17.42V285.334z M360.931,115.58
			c9.63,0,17.421,7.792,17.421,17.41v52.235c0,9.618-7.791,17.415-17.421,17.415H230.345c-9.605,0-17.412-7.797-17.412-17.415
			V132.99c0-9.618,7.807-17.41,17.412-17.41H360.931z"/>
	</g>
</g>
<g>
</g>
<g>
</g>
<g>
</g>
<g>
</g>
<g>
</g>
<g>
</g>
<g>
</g>
<g>
</g>
<g>
</g>
<g>
</g>
<g>
</g>
<g>
</g>
<g>
</g>
<g>
</g>
<g>
</g>
</svg>
