<?xml version="1.0" encoding="iso-8859-1"?>
<!-- Generator: Adobe Illustrator 16.0.0, SVG Export Plug-In . SVG Version: 6.00 Build 0)  -->
<!DOCTYPE svg PUBLIC "-//W3C//DTD SVG 1.1//EN" "http://www.w3.org/Graphics/SVG/1.1/DTD/svg11.dtd">
<svg version="1.1" id="Capa_1" xmlns="http://www.w3.org/2000/svg" xmlns:xlink="http://www.w3.org/1999/xlink" x="0px" y="0px"
	 width="458.909px" height="458.909px" viewBox="0 0 458.909 458.909" style="enable-background:new 0 0 458.909 458.909;"
	 xml:space="preserve">
<g>
	<g>
		<path d="M87.5,215.863c-6.754,10.126-8.439,51.479,0,88.616c8.438,37.129,9.285,134.193,14.349,126.595
			c2.23-3.35,16.21-3.751,31.174-3.146c10.183-5.863,20.684-11.053,31.348-15.938c0.659-1.002,1.875-1.471,3.124-1.431
			c23.388-10.576,47.322-20.014,69.689-32.713c15.46-8.788,29.883-18.654,45.953-26.404c14.819-7.146,30.97-13.622,44.118-23.688
			c22.2-17.012,30.352-50.453,37.421-76.089c5.742-20.807,10.295-41.863,14.972-62.918c0.36-30.967-11.762-48.72-9.346-69.948
			c2.545-22.474-10.587-49.001-10.948-49.724c-3.626,2.058-7.313,3.998-11.076,5.761c-19.304,14.896-32.769,35.917-46.827,55.489
			c-13.104,18.228-27.667,34.925-43.056,51.269c-31.248,33.208-65.393,63.833-108.256,80.964c-4.552,1.827-6.508-5.519-2.02-7.322
			c46.584-18.626,82.744-54.36,115.883-90.918c15.509-17.116,28.834-35.304,42.402-53.948c7.021-9.648,14.227-19.14,22.354-27.759
			c-31.774,10.479-66.644,12.733-99.582,12.671c-42.148-0.088-84.108-4.577-126.188-5.999c-0.272,6.847-0.272,11.8-0.272,11.8
			s0,0-13.505,21.94c-13.503,21.941,6.751,23.632-7.401,44.733C67.653,188.856,94.25,205.736,87.5,215.863z M241.792,215.705
			c29.154-24.628,59.021-50.406,96.194-61.745c4.692-1.433,6.688,5.895,2.02,7.326c-35.878,10.944-64.712,36.035-92.848,59.791
			C243.447,224.214,238.044,218.876,241.792,215.705z"/>
		<path d="M344.65,68.119c0.297-0.23,0.573-0.471,0.874-0.702c0.749-0.563,1.503-0.777,2.2-0.727
			c3.603-1.783,7.121-3.761,10.604-5.835c-0.325-6.352-0.333-17.288,0.934-35.736c2.536-37.129-95.369-10.125-177.227-22.788
			c-81.866-12.662-72.586,30.38-72.586,30.38s0,11.814-3.376,27.006c-1.402,6.328-2.22,14.547-2.699,21.999
			c40.693,1.453,81.283,5.861,122.042,5.949C265.379,87.761,307.982,85.217,344.65,68.119z"/>
		<path d="M165.781,430.336c-0.441-3.402-0.884-6.816-1.28-10.227c-5.829,2.753-11.618,5.614-17.324,8.624
			C154.461,429.263,161.086,429.867,165.781,430.336z"/>
		<path d="M379.094,225.625c-2.713,11.573-5.574,23.11-8.945,34.528c-6.764,22.857-14.65,53.823-33.794,69.945
			c-12.62,10.619-27.819,17.549-42.579,24.625c-17.111,8.212-32.496,18.162-48.927,27.483
			c-23.479,13.349-48.61,23.315-73.107,34.528c0.886,8.724,2.258,17.404,3.11,26.145c0.046,0.469-0.042,0.85-0.134,1.226
			l2.246,14.804c0,0,16.877-14.351,102.117-3.383c85.234,10.98,98.743-10.126,98.743-10.126s-2.541-44.724,1.983-96.211
			C383.257,309.974,379.815,261.968,379.094,225.625z"/>
	</g>
</g>
<g>
</g>
<g>
</g>
<g>
</g>
<g>
</g>
<g>
</g>
<g>
</g>
<g>
</g>
<g>
</g>
<g>
</g>
<g>
</g>
<g>
</g>
<g>
</g>
<g>
</g>
<g>
</g>
<g>
</g>
</svg>
