<?xml version="1.0" encoding="iso-8859-1"?>
<!-- Generator: Adobe Illustrator 16.0.0, SVG Export Plug-In . SVG Version: 6.00 Build 0)  -->
<!DOCTYPE svg PUBLIC "-//W3C//DTD SVG 1.1//EN" "http://www.w3.org/Graphics/SVG/1.1/DTD/svg11.dtd">
<svg version="1.1" id="Capa_1" xmlns="http://www.w3.org/2000/svg" xmlns:xlink="http://www.w3.org/1999/xlink" x="0px" y="0px"
	 width="479.101px" height="479.101px" viewBox="0 0 479.101 479.101" style="enable-background:new 0 0 479.101 479.101;"
	 xml:space="preserve">
<g>
	<g>
		<path d="M353.652,281.615c7.891-17.601-31.555-71.013-42.487-85.574c-2.26-3.018-3.711-6.414-4.761-9.924
			c-4.252,0.713-8.516,1.356-12.771,1.843c0.269,0.509,0.461,1.092,0.417,1.848c-5.498,78.491-6.772,160.095-50.41,227.287
			c13.249,19.092,49.809,47.34,66.308,56.917c18.822,10.933,23.07,2.421,22.461-8.495c-0.604-10.916,10.933-28.525,10.933-28.525
			l-4.857-3.643c5.459-3.65,6.669-15.777,6.669-15.777c9.714-6.685,8.495-32.175,8.495-32.175c7.887-5.467,5.467-8.488,3.034-15.777
			c-2.421-7.282,9.108-29.739,9.108-29.739C375.505,318.031,353.652,281.615,353.652,281.615z"/>
		<path d="M169.15,474.021c14.693-8.532,45.232-31.848,61.122-50.329c2.967-3.996,5.789-8.043,8.417-12.155
			c0.287-0.617,0.651-1.262,0.862-1.847c0.032,0.084,0.096,0.176,0.128,0.26c40.938-65.209,41.796-144.676,47.085-220.142
			c0.032-0.457,0.177-0.832,0.329-1.204c-7.45,0.667-14.908,0.959-22.369,1.094c-2.605,4.254-7.162,7.378-12.275,6.945
			c-5.165-0.429-10.305-0.399-15.473,0c-5.55,0.425-10.407-3.238-12.864-8.039c-2.875-0.181-5.75-0.329-8.63-0.533
			c-1.1,0.683-2.457,0.495-3.557-0.269c-12.884-0.966-25.82-2.068-38.78-3.036c-1.028,4.003-2.653,7.859-5.214,11.267
			c-10.928,14.569-50.375,67.974-42.486,85.574c0,0-21.845,36.424-12.137,58.264c0,0,11.535,22.466,9.109,29.739
			c-2.426,7.282-4.853,10.319,3.036,15.777c0,0-1.216,25.491,8.494,32.168c0,0,1.218,12.143,6.674,15.785l-4.853,3.643
			c0,0,11.534,17.601,10.928,28.525C146.087,476.449,150.329,484.944,169.15,474.021z"/>
		<path d="M353.652,15.777C345.766,8.494,295.993,0,295.993,0c-50.373,23.67-56.442,88.616-56.442,88.616s-0.022-0.269-0.068-0.675
			c-4.719,29.043-7.805,58.264-17.751,86.116c1.012,0.074,2.016,0.12,3.032,0.18c2.615-3.891,7.141-6.332,12.212-6.727
			c5.168-0.399,10.308-0.429,15.473,0c5.515,0.455,10.352,3.288,12.82,7.796c13.132-0.285,26.256-1.349,39.381-3.611
			c0.336-8.966,2.801-17.38,5.298-22.389c4.86-9.71,8.495-26.097,13.356-38.241c4.854-12.134,2.429-29.132,2.429-29.132
			C315.413,49.161,353.652,15.777,353.652,15.777z"/>
		<path d="M153.363,81.934c0,0-2.426,16.998,2.426,29.132c4.854,12.137,8.494,28.531,13.351,38.241
			c2.38,4.749,4.727,12.569,5.255,21.005c13.327,1.016,26.625,2.208,39.894,3.212c12.616-33.62,14.415-69.591,21.233-104.676
			C229.65,47.746,215.656,15.294,183.108,0c0,0-49.77,8.494-57.663,15.777C125.445,15.777,163.684,49.161,153.363,81.934z"/>
	</g>
</g>
<g>
</g>
<g>
</g>
<g>
</g>
<g>
</g>
<g>
</g>
<g>
</g>
<g>
</g>
<g>
</g>
<g>
</g>
<g>
</g>
<g>
</g>
<g>
</g>
<g>
</g>
<g>
</g>
<g>
</g>
</svg>
