<?xml version="1.0" encoding="iso-8859-1"?>
<!-- Generator: Adobe Illustrator 16.0.0, SVG Export Plug-In . SVG Version: 6.00 Build 0)  -->
<!DOCTYPE svg PUBLIC "-//W3C//DTD SVG 1.1//EN" "http://www.w3.org/Graphics/SVG/1.1/DTD/svg11.dtd">
<svg version="1.1" id="Capa_1" xmlns="http://www.w3.org/2000/svg" xmlns:xlink="http://www.w3.org/1999/xlink" x="0px" y="0px"
	 width="484.039px" height="484.039px" viewBox="0 0 484.039 484.039" style="enable-background:new 0 0 484.039 484.039;"
	 xml:space="preserve">
<g>
	<g>
		<path d="M297.367,85.149c6.456,7.045,9.975,2.936,9.975,2.936c14.09-21.119,32.864-27.575,32.864-31.094
			s-5.862-26.403-7.626-34.031c-1.763-7.628-8.219-26.403-13.493-22.41c-3.879,2.93-8.355,13.555-10.487,19.051l-3.282,0.689
			c-2.107,0.437-7.706,2.468-18.245,6.333c-14.427,5.282-38.562,14.12-43.438,14.12c-7.701,0-31.294-8.187-38.734-11.906
			c-7.73-3.872-24.908-10.173-25.632-10.441l-5.057-1.854c-2.36-5.721-6.021-13.547-9.253-15.986
			c-5.286-4.001-11.738,14.782-13.497,22.41c-1.76,7.628-7.628,30.513-7.628,34.031s18.777,9.98,32.859,31.093
			c0,0,3.519,4.11,9.979-2.935c6.454-7.037,1.759,71.588-4.692,88.009c-6.456,16.438-14.083,109.138-12.327,145.518
			c1.759,36.375,7.632,159.596,7.632,159.596s43.222,5.759,64.742,5.759s64.744-5.759,64.744-5.759s5.863-123.221,7.626-159.596
			c1.764-36.38-5.854-129.087-12.327-145.518C295.612,156.738,290.919,78.112,297.367,85.149z M248.617,56.991
			c-3.515,0-3.132-5.865-6.255-6.738c-0.241-0.078-0.471-0.108-0.682-0.108c-2.456,0-2.615,4.471-5.378,6.847
			c-0.142,0.13-0.411,0.192-0.779,0.192c-7.281,0-55.837-23.077-55.837-23.077l-1.382-9.438l-0.377-2.591
			c0,0,17.603,6.456,25.23,10.273c7.63,3.809,31.976,12.319,40.485,12.319s56.915-19.364,62.49-20.53c0,0-0.009,0.1-0.009,0.138
			c-0.032,0.735-0.404,9.077-2.929,11.6C303.186,35.87,252.144,56.991,248.617,56.991z"/>
	</g>
</g>
<g>
</g>
<g>
</g>
<g>
</g>
<g>
</g>
<g>
</g>
<g>
</g>
<g>
</g>
<g>
</g>
<g>
</g>
<g>
</g>
<g>
</g>
<g>
</g>
<g>
</g>
<g>
</g>
<g>
</g>
</svg>
