<?xml version="1.0" encoding="iso-8859-1"?>
<!-- Generator: Adobe Illustrator 16.0.0, SVG Export Plug-In . SVG Version: 6.00 Build 0)  -->
<!DOCTYPE svg PUBLIC "-//W3C//DTD SVG 1.1//EN" "http://www.w3.org/Graphics/SVG/1.1/DTD/svg11.dtd">
<svg version="1.1" id="Capa_1" xmlns="http://www.w3.org/2000/svg" xmlns:xlink="http://www.w3.org/1999/xlink" x="0px" y="0px"
	 width="417.422px" height="417.422px" viewBox="0 0 417.422 417.422" style="enable-background:new 0 0 417.422 417.422;"
	 xml:space="preserve">
<g>
	<g>
		<path d="M394.031,135.24c-23.091-7.478-45.568-11.281-66.812-11.281c-42.896,0-73.945,15.767-88.692,30.524
			c-16.844,16.839-28.188,17.326-30.192,17.326c-1.24,0-12.583-0.487-29.43-17.326c-14.75-14.757-45.799-30.524-88.688-30.524
			c-21.248,0-43.725,3.795-66.521,11.197c-0.717,0.172-17.436,4.412-20.584,21.101c-3.887,20.562-7.536,60.167,11.557,94.427
			c16.038,28.781,45.867,42.779,91.188,42.779l4.083-0.032c33.355-0.549,66.531-24.133,80.662-57.334
			c9.908-23.263,11.743-23.468,17.138-23.468c0.046,0,0.096,0,0.142,0h0.832l1.555-0.008c4.785,0,6.564,0,16.559,23.468
			c14.13,33.193,47.296,56.777,80.662,57.326l4.083,0.032l0,0c45.316,0,75.14-13.998,91.186-42.779
			c19.095-34.26,15.44-73.857,11.561-94.417C411.174,139.576,394.452,135.328,394.031,135.24z M175.708,203.705
			c-1.108,16.767-9.412,71.481-69.972,71.481l-1.964-0.028c-54.802-1.074-69.868-43.978-70.174-66.516
			c-0.203-15.26,0.511-31.093,11.489-42.28c9.958-10.148,27.679-15.362,52.675-15.497h0.877c35.979,0,54.826,12.074,64.301,22.193
			C173.144,183.944,176.187,196.371,175.708,203.705z M383.828,208.65c-0.309,22.538-15.372,65.433-70.178,66.519l-1.964,0.017
			c-60.548,0-68.859-54.706-69.97-71.473c-0.484-7.334,2.564-19.761,12.756-30.639c9.481-10.126,28.337-22.201,64.307-22.201h0.874
			c24.998,0.134,42.716,5.346,52.674,15.497C383.315,177.554,384.024,193.39,383.828,208.65z"/>
	</g>
</g>
<g>
</g>
<g>
</g>
<g>
</g>
<g>
</g>
<g>
</g>
<g>
</g>
<g>
</g>
<g>
</g>
<g>
</g>
<g>
</g>
<g>
</g>
<g>
</g>
<g>
</g>
<g>
</g>
<g>
</g>
</svg>
