<?xml version="1.0" encoding="iso-8859-1"?>
<!-- Generator: Adobe Illustrator 16.0.0, SVG Export Plug-In . SVG Version: 6.00 Build 0)  -->
<!DOCTYPE svg PUBLIC "-//W3C//DTD SVG 1.1//EN" "http://www.w3.org/Graphics/SVG/1.1/DTD/svg11.dtd">
<svg version="1.1" id="Capa_1" xmlns="http://www.w3.org/2000/svg" xmlns:xlink="http://www.w3.org/1999/xlink" x="0px" y="0px"
	 width="469.833px" height="469.833px" viewBox="0 0 469.833 469.833" style="enable-background:new 0 0 469.833 469.833;"
	 xml:space="preserve">
<g>
	<g>
		<path d="M48.898,382.86c-28.97,20.546-38.838,48.658-25.13,71.616c6.233,10.436,14.505,13.87,20.355,14.904
			c1.717,0.309,3.41,0.452,5.067,0.452c13.002,0,23.788-8.379,25.106-9.445l0.768-0.629L420.182,68.434
			c18.054-16.509,37.062-35.782,30.733-59.222c-2.989-11.101-14.395-11.343-22.233-5.109c-10.876,8.658-17.316,23.834-18.206,37.429
			c-0.048,0.746,0.101,1.389,0.221,2.048L306.375,161.879c22.738-30.224,40.118-59.28,47.981-84.495
			c9.093-13.485,17.993-38.331,1.919-49.96c-6.984-5.054-15.473-0.101-19.296,6.243c-6.067,10.062-5.698,23.964-5.021,35.215
			c0.013,0.26,0.129,0.441,0.161,0.683C300.416,175.812,68.809,368.746,48.898,382.86z M217.735,262.381L58.856,442.543
			c-2.176,1.519-7.229,4.199-10.61,3.662c-0.605-0.111-2.222-0.396-4.262-3.803c-10.848-18.17,13.553-36.788,18.544-40.33
			C73.96,393.961,147.006,333.962,217.735,262.381z"/>
	</g>
</g>
<g>
</g>
<g>
</g>
<g>
</g>
<g>
</g>
<g>
</g>
<g>
</g>
<g>
</g>
<g>
</g>
<g>
</g>
<g>
</g>
<g>
</g>
<g>
</g>
<g>
</g>
<g>
</g>
<g>
</g>
</svg>
