<?xml version="1.0" encoding="iso-8859-1"?>
<!-- Generator: Adobe Illustrator 16.0.0, SVG Export Plug-In . SVG Version: 6.00 Build 0)  -->
<!DOCTYPE svg PUBLIC "-//W3C//DTD SVG 1.1//EN" "http://www.w3.org/Graphics/SVG/1.1/DTD/svg11.dtd">
<svg version="1.1" id="Capa_1" xmlns="http://www.w3.org/2000/svg" xmlns:xlink="http://www.w3.org/1999/xlink" x="0px" y="0px"
	 width="421.94px" height="421.94px" viewBox="0 0 421.94 421.94" style="enable-background:new 0 0 421.94 421.94;"
	 xml:space="preserve">
<g>
	<g>
		<path d="M42.597,246.991c-0.042,0,80.589,76.79,131.099,124.871c21.984,20.931,57.366,20.654,79.019-0.598l126.694-124.273
			c25.956-22.109,42.531-55.039,42.531-91.877c0-66.585-53.969-120.557-120.544-120.557c-36.062,0-68.338,15.907-90.425,41.004
			c-22.099-25.088-54.363-41.004-90.421-41.004C53.97,34.557,0,88.529,0,155.114C-0.016,191.953,16.555,224.882,42.597,246.991z
			 M260.028,146.633c10.899,0,19.732,8.83,19.732,19.725c0,10.898-8.833,19.73-19.732,19.73c-10.9,0-19.732-8.833-19.732-19.73
			C240.296,155.463,249.128,146.633,260.028,146.633z M260.028,217.476c10.899,0,19.732,8.833,19.732,19.733
			c0,10.896-8.833,19.729-19.732,19.729c-10.9,0-19.732-8.833-19.732-19.729C240.296,226.309,249.128,217.476,260.028,217.476z
			 M161.898,144.08c10.898,0,19.729,8.83,19.729,19.729c0,10.894-8.831,19.727-19.729,19.727c-10.898,0-19.729-8.833-19.729-19.727
			C142.17,152.91,151,144.08,161.898,144.08z M161.898,214.936c10.898,0,19.729,8.828,19.729,19.729
			c0,10.904-8.831,19.732-19.729,19.732c-10.898,0-19.729-8.828-19.729-19.732C142.17,223.764,151,214.936,161.898,214.936z
			 M28.575,150.558c-2.164,0-3.925-1.759-3.925-3.925c0-44.3,36.033-80.337,80.333-80.337c2.166,0,3.925,1.759,3.925,3.925
			c0,2.17-1.759,3.925-3.925,3.925c-39.964,0-72.482,32.516-72.482,72.486C32.5,148.799,30.749,150.558,28.575,150.558z"/>
	</g>
</g>
<g>
</g>
<g>
</g>
<g>
</g>
<g>
</g>
<g>
</g>
<g>
</g>
<g>
</g>
<g>
</g>
<g>
</g>
<g>
</g>
<g>
</g>
<g>
</g>
<g>
</g>
<g>
</g>
<g>
</g>
</svg>
