<?xml version="1.0" encoding="iso-8859-1"?>
<!-- Generator: Adobe Illustrator 16.0.0, SVG Export Plug-In . SVG Version: 6.00 Build 0)  -->
<!DOCTYPE svg PUBLIC "-//W3C//DTD SVG 1.1//EN" "http://www.w3.org/Graphics/SVG/1.1/DTD/svg11.dtd">
<svg version="1.1" id="Capa_1" xmlns="http://www.w3.org/2000/svg" xmlns:xlink="http://www.w3.org/1999/xlink" x="0px" y="0px"
	 width="422.686px" height="422.686px" viewBox="0 0 422.686 422.686" style="enable-background:new 0 0 422.686 422.686;"
	 xml:space="preserve">
<g>
	<g>
		<path d="M234.479,267.815c0,0-0.89,0-2.428,0v-11.65h-7.29V148.432c0-4.342-1.19-7.851-2.669-7.851h-2.669V34.294
			c-3.699,7.779-8.644,15.99-14.635,23.989c-12.129,16.188-31.44,35.085-45.941,35.085c-2.431,0-4.542-0.681-6.45-1.727v48.94
			c0,0-1.192,0-2.669,0c-1.475,0-2.671,3.509-2.671,7.851v107.733h-7.267v11.65c-13.119,0-15.545,18.462-15.545,18.462v118.499
			c0,0,6.31,18.354,61.672,17.901c55.362-0.429,61.674-17.901,61.674-17.901v-100.53v-17.969
			C247.591,268.308,234.479,267.815,234.479,267.815z"/>
		<path d="M217.439,1.337c7.851,5.887,0.104,29.485-17.304,52.722c-17.406,23.237-37.888,37.297-45.739,31.417
			c-7.851-5.887-0.106-29.485,17.304-52.722C189.103,9.516,209.587-4.542,217.439,1.337z"/>
		<path d="M262.852,99.451c-19.641,0-35.578,4.398-35.578,9.814v24.195c2.981,2.15,5.342,6.516,5.342,13.998v99.891h7.286v12.68
			c7.188,2.393,15.54,9.382,15.54,25.267v62.344c1.227,0.032,2.444,0.076,3.747,0.076c30.421,0,39.253-14.719,39.253-14.719V109.265
			C298.441,103.849,282.516,99.451,262.852,99.451z"/>
	</g>
</g>
<g>
</g>
<g>
</g>
<g>
</g>
<g>
</g>
<g>
</g>
<g>
</g>
<g>
</g>
<g>
</g>
<g>
</g>
<g>
</g>
<g>
</g>
<g>
</g>
<g>
</g>
<g>
</g>
<g>
</g>
</svg>
