<?xml version="1.0" encoding="iso-8859-1"?>
<!-- Generator: Adobe Illustrator 16.0.0, SVG Export Plug-In . SVG Version: 6.00 Build 0)  -->
<!DOCTYPE svg PUBLIC "-//W3C//DTD SVG 1.1//EN" "http://www.w3.org/Graphics/SVG/1.1/DTD/svg11.dtd">
<svg version="1.1" id="Capa_1" xmlns="http://www.w3.org/2000/svg" xmlns:xlink="http://www.w3.org/1999/xlink" x="0px" y="0px"
	 width="320.815px" height="320.815px" viewBox="0 0 320.815 320.815" style="enable-background:new 0 0 320.815 320.815;"
	 xml:space="preserve">
<g>
	<g>
		<path d="M132.737,1.745c-4.168,1.717-10.292,0.243-11.767,4.412c-1.468,4.168-14.708,20.339-1.473,35.043
			c0,0-0.137,1.468,5.323-0.981c5.463-2.449,2.52,5.636,10.362,26.957c0,0,3.43,8.086-0.244,14.46s-9.805,37.492-9.805,62.495
			c0,24.998-2.571,169.834-2.571,169.834s2.693,3.065,8.456,0.979c5.761-2.081,6.03-0.486,6.03-0.486v3.552
			c0,0,3.775,2.946,10.636-0.859c6.861-3.79,4.901,6.38,12.743,2.946v-0.016c7.788,3.371,5.852-6.752,12.707-2.962
			c6.856,3.801,10.636,0.859,10.636,0.859v-3.552c0,0,0.27-1.59,6.027,0.487c5.759,2.086,8.456-0.979,8.456-0.979
			s-2.573-144.837-2.573-169.837c0-24.995-6.131-56.12-9.802-62.492c-3.672-6.374-0.244-14.46-0.244-14.46
			c7.84-21.321,4.898-29.406,10.361-26.957s5.323,0.981,5.323,0.981c13.235-14.704,0-30.883-1.476-35.043
			c-1.471-4.169-7.596-2.695-11.765-4.412C183.915,0,181.223,0,181.223,0s0.486,12.254-2.693,15.198
			c-3.169,2.925-17.985,18.955-18.131,19.107c-0.72-0.781-14.993-16.207-18.103-19.076c-3.185-2.943-2.693-15.197-2.693-15.197
			S136.905,0.031,132.737,1.745z"/>
	</g>
</g>
<g>
</g>
<g>
</g>
<g>
</g>
<g>
</g>
<g>
</g>
<g>
</g>
<g>
</g>
<g>
</g>
<g>
</g>
<g>
</g>
<g>
</g>
<g>
</g>
<g>
</g>
<g>
</g>
<g>
</g>
</svg>
