<?xml version="1.0" encoding="iso-8859-1"?>
<!-- Generator: Adobe Illustrator 16.0.0, SVG Export Plug-In . SVG Version: 6.00 Build 0)  -->
<!DOCTYPE svg PUBLIC "-//W3C//DTD SVG 1.1//EN" "http://www.w3.org/Graphics/SVG/1.1/DTD/svg11.dtd">
<svg version="1.1" id="Capa_1" xmlns="http://www.w3.org/2000/svg" xmlns:xlink="http://www.w3.org/1999/xlink" x="0px" y="0px"
	 width="476.45px" height="476.45px" viewBox="0 0 476.45 476.45" style="enable-background:new 0 0 476.45 476.45;"
	 xml:space="preserve">
<g>
	<g>
		<path d="M29.849,227.165c-0.196,3.649-0.309,7.322-0.309,11.016c0,3.972,0.142,7.911,0.373,11.822
			c-21.205,9.489-32.636,33.346-25.94,56.24c6.124,20.498,24.886,33.763,45.228,33.763c2.384,0,4.797-0.225,7.215-0.589
			c3.775,6.607,7.897,12.992,12.361,19.127c-12.706,19.396-9.49,45.753,8.606,61.382c8.87,7.69,19.853,11.461,30.773,11.461
			c11.213,0,22.352-4.007,31.184-11.813c6.705,3.534,13.633,6.692,20.749,9.47c-0.207,23.235,16.827,43.62,40.459,46.935
			c2.196,0.32,4.474,0.473,6.594,0.473c21.025,0,39.377-14.037,45.136-34.223c7.698-0.657,15.28-1.724,22.706-3.219
			c8.788,13.854,23.988,21.897,39.781,21.897c6.608,0,13.273-1.335,19.625-4.232c21.704-9.954,32.163-34.38,25.354-56.597
			c5.995-4.66,11.738-9.634,17.172-14.916c6.396,2.974,13.165,4.461,19.889,4.461c15.545,0,30.693-7.614,39.734-21.588
			c12.896-20.102,8.556-46.25-9.102-61.286c2.545-7.129,4.677-14.459,6.424-21.933c22.983-3.122,40.748-22.794,40.748-46.618
			c0-0.08,0-0.24,0-0.325c0-0.229,0-0.38,0-0.629c-0.137-23.876-17.909-43.428-40.939-46.476c-1.771-7.466-3.932-14.787-6.5-21.924
			c17.608-15.162,21.84-41.277,8.815-61.282c-12.979-20.041-38.647-26.856-59.65-16.901c-5.466-5.26-11.209-10.211-17.228-14.845
			c6.732-22.264-3.819-46.617-25.636-56.491c-21.688-9.796-46.959-1.773-59.302,17.914c-7.382-1.461-14.924-2.489-22.574-3.132
			c-6.428-22.293-28.455-37.007-51.984-33.621c-23.628,3.46-40.54,23.927-40.309,47.18c-7.099,2.809-14.014,5.983-20.704,9.536
			c-17.475-15.344-43.985-15.815-61.913-0.106c-18.02,15.707-21.175,42.054-8.396,61.45c-4.426,6.131-8.523,12.523-12.269,19.135
			c-23.042-3.482-45.576,10.452-52.281,33.386C-2.956,193.949,8.59,217.779,29.849,227.165z M53.285,230.924
			c18.683-1.743,35.357-14.463,40.892-33.562c5.583-19.097-1.549-38.866-16.371-50.377c2.529-4.324,5.236-8.54,8.104-12.63
			c6.772,3.484,14.216,5.308,21.692,5.308c10.988,0,21.979-3.767,30.929-11.542c15.034-13.108,19.703-33.612,13.401-51.325
			c4.428-2.27,8.939-4.382,13.573-6.288c8.25,14.367,23.694,23.694,40.774,23.694c2.278,0,4.554-0.158,6.83-0.473
			c19.761-2.89,34.805-17.639,39.093-35.977c5.005,0.487,9.95,1.222,14.827,2.112c-0.921,18.745,9.405,37.012,27.567,45.246
			c6.355,2.905,12.939,4.24,19.456,4.24c12.167,0,23.896-4.841,32.677-13.335c3.939,3.116,7.75,6.39,11.413,9.82
			c-10.9,15.298-12.03,36.265-1.143,52.974h-0.092c9.108,13.896,24.181,21.508,39.565,21.508c3.121,0,6.239-0.429,9.345-1.066
			c1.628,4.701,3.09,9.483,4.324,14.36c-17.492,6.923-29.875,24.019-29.759,44.016c0,0,0,0.076,0,0.152c0,0.156,0,0.24,0,0.4
			c0,19.934,12.395,36.953,29.936,43.821c-1.219,4.873-2.653,9.65-4.248,14.351c-18.43-3.67-38.03,3.924-48.851,20.639
			c-10.76,16.775-9.514,37.758,1.45,53.019c-3.65,3.438-7.421,6.724-11.328,9.846c-13.533-12.979-34.115-17.144-52.217-8.849
			c-18.086,8.288-28.405,26.617-27.399,45.356c-4.877,0.909-9.798,1.671-14.799,2.185c-4.328-18.347-19.424-33.074-39.189-35.843
			c-19.714-2.766-38.291,7.101-47.55,23.415c-4.643-1.896-9.169-3.971-13.613-6.224c6.218-17.74,1.443-38.227-13.579-51.267
			c-15.084-12.98-36.037-14.743-52.688-6.035c-2.879-4.076-5.596-8.264-8.139-12.571c14.782-11.569,21.8-31.37,16.154-50.474
			c-5.596-19.075-22.301-31.879-41.038-33.519c-0.112-2.608-0.201-5.229-0.201-7.851C53.092,235.749,53.188,233.332,53.285,230.924z
			"/>
	</g>
</g>
<g>
</g>
<g>
</g>
<g>
</g>
<g>
</g>
<g>
</g>
<g>
</g>
<g>
</g>
<g>
</g>
<g>
</g>
<g>
</g>
<g>
</g>
<g>
</g>
<g>
</g>
<g>
</g>
<g>
</g>
</svg>
