<?xml version="1.0" encoding="iso-8859-1"?>
<!-- Generator: Adobe Illustrator 16.0.0, SVG Export Plug-In . SVG Version: 6.00 Build 0)  -->
<!DOCTYPE svg PUBLIC "-//W3C//DTD SVG 1.1//EN" "http://www.w3.org/Graphics/SVG/1.1/DTD/svg11.dtd">
<svg version="1.1" id="Capa_1" xmlns="http://www.w3.org/2000/svg" xmlns:xlink="http://www.w3.org/1999/xlink" x="0px" y="0px"
	 width="461.356px" height="461.356px" viewBox="0 0 461.356 461.356" style="enable-background:new 0 0 461.356 461.356;"
	 xml:space="preserve">
<g>
	<g>
		<path d="M235.689,448.597c15.629-114.376,11.369-353.477,11.369-372.167C247.058,34.217,239.612,0,230.409,0
			c-9.191,0-16.641,34.217-16.641,76.429c0,18.586,7.224,314.373,13.141,371.9C228.692,465.557,233.338,465.749,235.689,448.597z
			 M224.146,44.414c0-16.593,2.921-30.06,6.532-30.06c3.619,0,6.538,13.459,6.538,30.06c0,16.591-2.919,30.052-6.538,30.052
			C227.075,74.466,224.146,61.013,224.146,44.414z"/>
	</g>
</g>
<g>
</g>
<g>
</g>
<g>
</g>
<g>
</g>
<g>
</g>
<g>
</g>
<g>
</g>
<g>
</g>
<g>
</g>
<g>
</g>
<g>
</g>
<g>
</g>
<g>
</g>
<g>
</g>
<g>
</g>
</svg>
