<?xml version="1.0" encoding="iso-8859-1"?>
<!-- Generator: Adobe Illustrator 16.0.0, SVG Export Plug-In . SVG Version: 6.00 Build 0)  -->
<!DOCTYPE svg PUBLIC "-//W3C//DTD SVG 1.1//EN" "http://www.w3.org/Graphics/SVG/1.1/DTD/svg11.dtd">
<svg version="1.1" id="Capa_1" xmlns="http://www.w3.org/2000/svg" xmlns:xlink="http://www.w3.org/1999/xlink" x="0px" y="0px"
	 width="324.699px" height="324.699px" viewBox="0 0 324.699 324.699" style="enable-background:new 0 0 324.699 324.699;"
	 xml:space="preserve">
<g>
	<g>
		<polygon points="89.263,277.153 95.303,269.625 49.847,193.683 30.621,214.706 		"/>
		<polygon points="229.398,269.625 235.431,277.153 294.078,214.706 274.852,193.683 		"/>
		<polygon points="50.471,187.5 51.462,189.157 52.459,190.824 97.778,266.538 97.812,266.502 97.812,266.502 99.052,264.954 
			99.158,264.819 100.271,263.432 100.308,263.432 102.053,263.432 105.245,263.432 71.261,173.57 49.803,186.382 		"/>
		<polygon points="273.231,189.157 274.23,187.5 274.894,186.382 253.436,173.57 219.446,263.432 222.646,263.432 224.391,263.432 
			224.428,263.432 225.541,264.819 225.649,264.954 226.887,266.502 226.923,266.538 272.242,190.824 		"/>
		<polygon points="73.167,168.112 84.753,198.747 101.015,241.751 109.217,263.432 110.229,263.432 112.249,263.432 
			114.266,263.432 115.648,263.432 98.643,147.253 69.161,157.529 		"/>
		<polygon points="209.049,263.432 210.436,263.432 212.45,263.432 214.465,263.432 215.479,263.432 223.682,241.751 
			239.951,198.726 251.529,168.112 255.532,157.529 226.053,147.253 		"/>
		<path d="M119.412,115.946c0,0.065,0.016,0.117,0.016,0.181h85.841c0-0.064,0.021-0.116,0.021-0.181
			c0-6.053-4.914-10.964-10.968-10.964h-3.2c0.28-0.717,0.467-1.474,0.467-2.286c0-3.532-2.869-6.396-6.4-6.396h-6.556l-9.693,8.682
			l-4.116,3.679l-0.482,0.43l-1.993,1.781l-1.993-1.781l-0.482-0.43l-4.117-3.679l-9.696-8.682h-6.556
			c-3.531,0-6.395,2.864-6.395,6.396c0,0.812,0.187,1.569,0.461,2.286h-3.203C124.319,104.986,119.412,109.898,119.412,115.946z"/>
		<polygon points="103.2,141.738 108.513,178.034 114.711,220.401 114.711,220.401 121.01,263.432 122.923,263.432 122.923,263.432 
			124.816,263.432 126.703,263.432 162.347,263.432 197.998,263.432 199.883,263.432 201.768,263.432 203.689,263.432 
			203.689,263.432 209.99,220.401 216.184,178.023 221.496,141.738 224.469,121.43 203.767,121.43 120.93,121.43 100.225,121.43 		
			"/>
		<polygon points="92.015,49.801 127.472,87.552 128.909,86.433 128.676,86.047 101.061,39.91 		"/>
		<polygon points="196.021,86.047 195.782,86.433 197.227,87.552 232.682,49.801 223.63,39.91 		"/>
		<polygon points="105.605,32.682 102.26,34.683 102.685,35.387 103.681,37.047 131.863,84.137 132.35,84.043 131.917,83.65 
			132.451,82.278 131.646,80.139 127.871,70.15 112.207,28.744 		"/>
		<polygon points="212.486,28.744 196.828,70.15 193.048,80.145 192.24,82.278 192.784,83.65 192.349,84.043 192.836,84.137 
			221.021,37.047 222.015,35.387 222.439,34.683 219.089,32.682 		"/>
		<polygon points="112.596,19.273 114.11,23.281 114.778,25.041 129.605,64.237 134.473,77.118 134.763,76.38 135.729,73.91 
			136.104,72.949 135.459,68.527 127.488,14.082 		"/>
		<polygon points="189.236,68.527 188.595,72.949 188.968,73.91 189.936,76.38 190.226,77.118 195.094,64.237 209.918,25.047 
			210.581,23.281 212.098,19.273 197.206,14.082 		"/>
		<polygon points="130.512,9.098 130.786,10.97 136.912,52.838 139.185,68.385 139.881,68.385 140.423,68.385 141.769,68.385 
			143.662,68.385 162.347,68.385 181.035,68.385 182.925,68.385 184.271,68.385 184.814,68.385 185.509,68.385 187.781,52.843 
			193.912,10.97 194.188,9.098 195.518,0 129.181,0 		"/>
		<polygon points="252.338,304.142 235.213,282.809 234.038,281.348 232.862,279.878 227.358,273.021 226.126,271.479 
			224.883,269.936 224.862,269.904 223.619,268.361 222.646,267.145 222.186,267.145 218.048,267.145 216.06,267.145 
			214.076,267.145 212.891,267.145 210.871,267.145 208.852,267.145 208.505,267.145 205.827,267.145 203.146,267.145 
			203.146,267.145 201.063,267.145 199.179,267.145 197.283,267.145 162.347,267.145 127.41,267.145 125.522,267.145 
			123.635,267.145 123.635,267.145 121.551,267.145 121.551,267.145 118.871,267.145 116.189,267.145 115.845,267.145 
			113.825,267.145 111.809,267.145 110.617,267.145 108.634,267.145 106.651,267.145 102.508,267.145 102.053,267.145 
			101.077,268.361 99.836,269.904 99.836,269.904 99.811,269.936 98.576,271.479 97.333,273.021 91.831,279.878 90.658,281.348 
			89.485,282.809 72.359,304.142 72.359,324.699 162.347,324.699 252.338,324.699 		"/>
		<polygon points="138.607,84.657 139.397,85.369 140.332,86.2 151.625,96.305 161.329,104.986 162.347,105.897 163.369,104.986 
			173.07,96.305 184.369,86.2 185.296,85.369 186.089,84.657 186.771,84.049 187.818,83.114 188.388,82.604 188.264,82.298 
			187.859,81.258 187.508,80.362 186.891,78.793 186.141,76.872 185.923,76.323 184.773,73.384 184.271,72.095 184.11,72.095 
			182.221,72.095 180.33,72.095 162.347,72.095 144.366,72.095 142.479,72.095 140.591,72.095 140.423,72.095 139.918,73.384 
			138.773,76.323 138.556,76.88 137.803,78.788 137.191,80.362 136.837,81.258 136.433,82.298 136.311,82.604 136.883,83.114 
			137.929,84.049 		"/>
	</g>
</g>
<g>
</g>
<g>
</g>
<g>
</g>
<g>
</g>
<g>
</g>
<g>
</g>
<g>
</g>
<g>
</g>
<g>
</g>
<g>
</g>
<g>
</g>
<g>
</g>
<g>
</g>
<g>
</g>
<g>
</g>
</svg>
