<?xml version="1.0" encoding="iso-8859-1"?>
<!-- Generator: Adobe Illustrator 16.0.0, SVG Export Plug-In . SVG Version: 6.00 Build 0)  -->
<!DOCTYPE svg PUBLIC "-//W3C//DTD SVG 1.1//EN" "http://www.w3.org/Graphics/SVG/1.1/DTD/svg11.dtd">
<svg version="1.1" id="Capa_1" xmlns="http://www.w3.org/2000/svg" xmlns:xlink="http://www.w3.org/1999/xlink" x="0px" y="0px"
	 width="430.044px" height="430.044px" viewBox="0 0 430.044 430.044" style="enable-background:new 0 0 430.044 430.044;"
	 xml:space="preserve">
<g>
	<g>
		<path d="M378.78,418.321c17.34,0,31.402-14.058,31.402-31.401v-19.625c0-17.34-4.492-31.402-10.027-31.402h-10.022
			c-6.291-52.06-34.022-97.509-74.108-127.25l84.664-118.917c5.53,1.852,11.762,1.587,17.345-1.31
			c10.916-5.67,15.164-19.118,9.505-30.022c-5.674-10.91-19.111-15.164-30.023-9.5c-10.908,5.668-15.164,19.102-9.489,30.022
			c0.722,1.415,1.61,2.699,2.577,3.887l-80.546,121.788c-14.947-10.227-31.438-18.346-49.095-23.889
			c25.819-46.302,54.525-108.122,57.391-114.017c8.127-16.721,11.762-31.725,8.11-33.492c-3.646-1.773-13.185,10.365-21.303,27.086
			c-2.689,5.55-33.991,74.121-53.022,117.904c-14.099-3.675-28.815-5.761-44.008-6.007l-7.746-46.067
			c5.222-2.595,9.433-7.197,11.335-13.185c3.715-11.729-2.795-24.235-14.517-27.948c-11.718-3.715-24.233,2.785-27.948,14.515
			c-3.703,11.717,2.787,24.227,14.517,27.939c1.515,0.477,3.048,0.768,4.569,0.924l8.98,44.042
			c-24.627,1.014-47.971,6.769-69.222,16.433C117.616,136.273,89.378,49.186,87.14,41.862C81.731,24.075,74.196,10.61,70.301,11.794
			c-3.875,1.18-2.615,16.559,2.801,34.337c2.156,7.062,35.604,107.896,49.492,145.133c-12.677,6.27-24.429,14.058-35.273,22.928
			L37.7,117.234c4.191-4.052,6.829-9.702,6.829-16c0-12.293-9.977-22.264-22.261-22.264C9.969,78.971,0,88.934,0,101.234
			c0,12.292,9.969,22.263,22.268,22.263c1.591,0,3.13-0.181,4.637-0.495l53.761,96.667c-32.754,29.41-55.056,70.233-60.606,116.223
			c0,0-4.488,0-10.025,0c-5.534,0-10.024,14.062-10.024,31.402v19.625c0,17.344,14.058,31.401,31.402,31.401H378.78z
			 M315.427,49.588c3.202-6.58,6.953-11.345,8.38-10.656c1.431,0.701,0,6.59-3.198,13.174c-3.189,6.562-6.937,11.335-8.363,10.646
			C310.811,62.056,312.245,56.167,315.427,49.588z M79.99,43.126c-1.524,0.463-4.476-4.829-6.628-11.814
			c-2.126-7.003-2.621-13.048-1.1-13.513c1.527-0.463,4.478,4.831,6.62,11.826C81.01,36.61,81.513,42.662,79.99,43.126z"/>
	</g>
</g>
<g>
</g>
<g>
</g>
<g>
</g>
<g>
</g>
<g>
</g>
<g>
</g>
<g>
</g>
<g>
</g>
<g>
</g>
<g>
</g>
<g>
</g>
<g>
</g>
<g>
</g>
<g>
</g>
<g>
</g>
</svg>
