<?xml version="1.0" encoding="iso-8859-1"?>
<!-- Generator: Adobe Illustrator 16.0.0, SVG Export Plug-In . SVG Version: 6.00 Build 0)  -->
<!DOCTYPE svg PUBLIC "-//W3C//DTD SVG 1.1//EN" "http://www.w3.org/Graphics/SVG/1.1/DTD/svg11.dtd">
<svg version="1.1" id="Capa_1" xmlns="http://www.w3.org/2000/svg" xmlns:xlink="http://www.w3.org/1999/xlink" x="0px" y="0px"
	 width="290.104px" height="290.105px" viewBox="0 0 290.104 290.105" style="enable-background:new 0 0 290.104 290.105;"
	 xml:space="preserve">
<g>
	<g>
		<path d="M112.349,174.775c0,6.561,5.323,11.889,11.895,11.889h36.562c6.571,0,11.895-5.328,11.895-11.889v-50.396h-60.352V174.775
			z"/>
		<path d="M209.49,91.891h75.704l-2.962-17.924H7.875L4.911,91.891h65.141c5.541-1.657,39.074-11.247,73.931-11.247
			C178.152,80.644,204.183,89.864,209.49,91.891z"/>
		<path d="M261.433,152.115c18.625,0,31.26-14.899,28.221-33.276l-2.781-16.821h-79.318l-0.927-0.37
			c-0.265-0.111-27.159-10.877-62.645-10.877c-35.771,0-71.326,10.908-71.684,11.019l-0.73,0.228H3.235l-2.783,16.821
			c-3.044,18.382,9.598,33.276,28.224,33.276h71.323v9.492h-71.37c-10.053,0-18.993-3.619-25.531-10.186
			c-2.641,15.984-5.991,47.234,4.168,64.716h277.727c0,0,9.615-33.072,1.418-64.177c-6.488,6.234-15.239,9.646-25.031,9.646h-75.786
			v-9.492H261.433z M179.938,133.912v46c0,8.088-6.555,14.639-14.639,14.639h-45.002c-8.085,0-14.636-6.551-14.636-14.639v-46
			H94.728V101.87h96.137v32.042H179.938z"/>
	</g>
</g>
<g>
</g>
<g>
</g>
<g>
</g>
<g>
</g>
<g>
</g>
<g>
</g>
<g>
</g>
<g>
</g>
<g>
</g>
<g>
</g>
<g>
</g>
<g>
</g>
<g>
</g>
<g>
</g>
<g>
</g>
</svg>
