<?xml version="1.0" encoding="iso-8859-1"?>
<!-- Generator: Adobe Illustrator 16.0.0, SVG Export Plug-In . SVG Version: 6.00 Build 0)  -->
<!DOCTYPE svg PUBLIC "-//W3C//DTD SVG 1.1//EN" "http://www.w3.org/Graphics/SVG/1.1/DTD/svg11.dtd">
<svg version="1.1" id="Capa_1" xmlns="http://www.w3.org/2000/svg" xmlns:xlink="http://www.w3.org/1999/xlink" x="0px" y="0px"
	 width="395.133px" height="395.133px" viewBox="0 0 395.133 395.133" style="enable-background:new 0 0 395.133 395.133;"
	 xml:space="preserve">
<g>
	<g>
		<path d="M0.008,279.809c0,34.797,28.205,62.993,62.991,62.993H332.14c34.788,0,62.984-28.204,62.984-62.993v-83.274
			c-8.464,6.876-19.5,11.545-33.938,11.545c-0.004,0-0.004,0-0.004,0c-20.442,0-36.332-9.057-54.71-19.528
			c-16.306-9.289-34.047-19.328-58.616-25.445v4.695c0,28.998-20.654,52.501-46.14,52.501c-25.479,0-46.151-23.492-46.151-52.501
			v-6.428c-28.916,5.769-48.854,16.901-66.91,27.186c-18.376,10.472-34.257,19.521-54.707,19.521h-0.01
			c-14.429,0-25.473-4.661-33.937-11.538v83.266H0.008z"/>
		<path d="M237.368,66.345c0-5.792-4.709-10.503-10.504-10.503h-50.291c-5.781,0-10.5,4.711-10.5,10.503v71.907
			c9.618-1.216,20.067-1.921,31.499-1.921c14.802,0,27.958,1.162,39.796,3.14V66.345z"/>
		<path d="M0.008,115.33v44.15c3.888,11.976,12.96,27.603,33.947,27.603c14.883,0,27.868-7.402,44.304-16.767
			c17.527-9.977,37.918-21.526,66.816-28.276V66.337c0-5.056,1.312-9.774,3.438-14.006H62.999
			C28.212,52.331,0.008,80.54,0.008,115.33z"/>
		<path d="M316.867,170.316c16.455,9.357,29.423,16.767,44.318,16.767c21.015,0,30.084-15.402,33.947-27.327V115.33
			c0-34.791-28.205-62.991-62.993-62.991h-77.188c2.124,4.232,3.423,8.957,3.423,14.006v77.828
			C282.961,151.05,301.074,161.319,316.867,170.316z"/>
		<path d="M201.722,146.805c13.773,0,24.935,11.162,24.935,24.93c0,13.773-11.161,24.937-24.935,24.937
			c-13.768,0-24.93-11.163-24.93-24.937C176.792,157.967,187.954,146.805,201.722,146.805z"/>
	</g>
</g>
<g>
</g>
<g>
</g>
<g>
</g>
<g>
</g>
<g>
</g>
<g>
</g>
<g>
</g>
<g>
</g>
<g>
</g>
<g>
</g>
<g>
</g>
<g>
</g>
<g>
</g>
<g>
</g>
<g>
</g>
</svg>
