<?xml version="1.0" encoding="iso-8859-1"?>
<!-- Generator: Adobe Illustrator 16.0.0, SVG Export Plug-In . SVG Version: 6.00 Build 0)  -->
<!DOCTYPE svg PUBLIC "-//W3C//DTD SVG 1.1//EN" "http://www.w3.org/Graphics/SVG/1.1/DTD/svg11.dtd">
<svg version="1.1" id="Capa_1" xmlns="http://www.w3.org/2000/svg" xmlns:xlink="http://www.w3.org/1999/xlink" x="0px" y="0px"
	 width="285.858px" height="285.858px" viewBox="0 0 285.858 285.858" style="enable-background:new 0 0 285.858 285.858;"
	 xml:space="preserve">
<g>
	<g>
		<path d="M268.755,106.369h-95.909c-9.419,0-17.088,7.666-17.088,17.09v6.745c-4.66-4.098-8.966-6.172-12.836-6.172
			c-3.865,0-8.171,2.079-12.842,6.178v-6.75c0-9.424-7.664-17.09-17.085-17.09H17.085C7.669,106.369,0,114.035,0,123.459v38.937
			c0,9.425,7.664,17.094,17.085,17.094h95.919c9.417,0,17.085-7.669,17.085-17.094v-20.373c3.881-4.805,9.598-9.778,12.842-9.778
			c3.234,0,8.953,4.974,12.837,9.778v20.373c0,9.425,7.663,17.094,17.088,17.094h95.909c9.419,0,17.093-7.669,17.093-17.094v-38.937
			C285.848,114.035,278.18,106.369,268.755,106.369z M121.87,162.396c0,4.899-3.977,8.876-8.87,8.876H17.085
			c-4.894,0-8.87-3.987-8.87-8.876v-38.937c0-4.893,3.977-8.87,8.87-8.87h95.919c4.894,0,8.87,3.977,8.87,8.87v38.937H121.87z
			 M277.631,162.396c0,4.899-3.978,8.876-8.876,8.876h-95.909c-4.888,0-8.875-3.987-8.875-8.876v-38.937
			c0-4.893,3.987-8.87,8.875-8.87h95.909c4.898,0,8.876,3.977,8.876,8.87V162.396z"/>
	</g>
</g>
<g>
</g>
<g>
</g>
<g>
</g>
<g>
</g>
<g>
</g>
<g>
</g>
<g>
</g>
<g>
</g>
<g>
</g>
<g>
</g>
<g>
</g>
<g>
</g>
<g>
</g>
<g>
</g>
<g>
</g>
</svg>
