<?xml version="1.0" encoding="iso-8859-1"?>
<!-- Generator: Adobe Illustrator 16.0.0, SVG Export Plug-In . SVG Version: 6.00 Build 0)  -->
<!DOCTYPE svg PUBLIC "-//W3C//DTD SVG 1.1//EN" "http://www.w3.org/Graphics/SVG/1.1/DTD/svg11.dtd">
<svg version="1.1" id="Capa_1" xmlns="http://www.w3.org/2000/svg" xmlns:xlink="http://www.w3.org/1999/xlink" x="0px" y="0px"
	 width="286.433px" height="286.433px" viewBox="0 0 286.433 286.433" style="enable-background:new 0 0 286.433 286.433;"
	 xml:space="preserve">
<g>
	<g>
		<path d="M275.415,88.38l-126.315-3.457l3.495-8.875h-26.325l2.312,9.114L11.017,88.38c-7.425,0.197-11.874,6.172-10.154,13.393
			c3.304,13.914,7.915,35.905,7.915,50.266c0,15.286-5.207,44.372-8.526,61.33c-1.427,7.28,3.34,13.163,10.765,13.163h129.955h4.487
			h129.955c7.426,0,12.194-5.883,10.766-13.163c-3.314-16.958-8.528-46.054-8.528-61.33c0-14.369,4.613-36.353,7.917-50.266
			C287.288,94.552,282.845,88.582,275.415,88.38z"/>
		<path d="M144.696,62.557h-1.538c-0.552-1.535-1.988-2.656-3.723-2.656c-1.732,0-3.169,1.121-3.721,2.656c0,0-0.691,0-1.538,0
			c-0.85,0-1.533,0.601-1.533,1.333v1.336c0,0-0.668,0-1.486,0c-0.826,0-1.489,0.933-1.489,2.092v2.102
			c-0.8,0.301-2.434,1.287-3.399,4.484h26.325c0,0-0.937-4.078-3.396-4.528c0,0,0-0.932,0-2.079c0-1.149-0.663-2.071-1.486-2.071
			h-1.488c0,0,0-0.601,0-1.336C146.223,63.162,145.537,62.557,144.696,62.557z"/>
	</g>
</g>
<g>
</g>
<g>
</g>
<g>
</g>
<g>
</g>
<g>
</g>
<g>
</g>
<g>
</g>
<g>
</g>
<g>
</g>
<g>
</g>
<g>
</g>
<g>
</g>
<g>
</g>
<g>
</g>
<g>
</g>
</svg>
