<?xml version="1.0" encoding="iso-8859-1"?>
<!-- Generator: Adobe Illustrator 16.0.0, SVG Export Plug-In . SVG Version: 6.00 Build 0)  -->
<!DOCTYPE svg PUBLIC "-//W3C//DTD SVG 1.1//EN" "http://www.w3.org/Graphics/SVG/1.1/DTD/svg11.dtd">
<svg version="1.1" id="Capa_1" xmlns="http://www.w3.org/2000/svg" xmlns:xlink="http://www.w3.org/1999/xlink" x="0px" y="0px"
	 width="296.219px" height="296.219px" viewBox="0 0 296.219 296.219" style="enable-background:new 0 0 296.219 296.219;"
	 xml:space="preserve">
<g>
	<g>
		<path d="M285.615,118.061h-58.083c1.3,9.471,2.035,19.429,2.035,30.049c0,12.055-1.352,23.871-3.832,35.351h59.88
			c5.856,0,10.604-4.748,10.604-10.604v-44.185C296.219,122.812,291.471,118.061,285.615,118.061z"/>
		<path d="M69.387,118.061H10.605C4.746,118.061,0,122.807,0,128.665v44.186c0,5.861,4.746,10.604,10.605,10.604h59.869
			c-2.473-11.479-3.829-23.302-3.829-35.351C66.65,137.914,67.605,127.871,69.387,118.061z"/>
		<path d="M148.107,14.203c-36.114,23.042-62.282,60.284-70.64,103.857c-1.867,9.729-2.869,19.772-2.869,30.049
			c0,12.163,1.442,23.975,4.037,35.351c9.406,41.28,34.83,76.455,69.472,98.556c34.634-22.101,60.064-57.275,69.468-98.556
			c2.599-11.376,4.038-23.188,4.038-35.351c0-10.843-0.776-20.77-2.112-30.049C212.153,67.066,185.491,38.059,148.107,14.203z
			 M148.107,30.931c4.682,0,8.479,3.798,8.479,8.479c0,4.681-3.798,8.479-8.479,8.479c-4.684,0-8.479-3.799-8.479-8.479
			C139.628,34.729,143.423,30.931,148.107,30.931z M89.781,153.939c-4.684,0-8.479-3.8-8.479-8.481c0-4.681,3.795-8.479,8.479-8.479
			c4.681,0,8.477,3.799,8.477,8.479C98.257,150.14,94.467,153.939,89.781,153.939z M155.359,259.987
			c-4.681,0-8.479-3.801-8.479-8.481s3.798-8.481,8.479-8.481c4.687,0,8.477,3.801,8.477,8.481S160.045,259.987,155.359,259.987z
			 M183.824,183.46c-6.742,19.692-19.056,36.843-35.711,48.871c-16.655-12.028-28.974-29.179-35.713-48.871
			c-3.806-11.127-5.859-23.058-5.859-35.351c0-10.361,1.452-20.467,4.184-30.049c6.248-21.914,19.247-41.078,37.389-54.173
			c18.136,13.101,31.144,32.259,37.389,54.173c2.729,9.582,4.184,19.682,4.184,30.049
			C189.674,160.402,187.629,172.333,183.824,183.46z M206.431,153.939c-4.682,0-8.477-3.8-8.477-8.481
			c0-4.681,3.795-8.479,8.477-8.479c4.681,0,8.481,3.799,8.481,8.479C214.913,150.14,211.123,153.939,206.431,153.939z"/>
	</g>
</g>
<g>
</g>
<g>
</g>
<g>
</g>
<g>
</g>
<g>
</g>
<g>
</g>
<g>
</g>
<g>
</g>
<g>
</g>
<g>
</g>
<g>
</g>
<g>
</g>
<g>
</g>
<g>
</g>
<g>
</g>
</svg>
