<?xml version="1.0" encoding="iso-8859-1"?>
<!-- Generator: Adobe Illustrator 16.0.0, SVG Export Plug-In . SVG Version: 6.00 Build 0)  -->
<!DOCTYPE svg PUBLIC "-//W3C//DTD SVG 1.1//EN" "http://www.w3.org/Graphics/SVG/1.1/DTD/svg11.dtd">
<svg version="1.1" id="Capa_1" xmlns="http://www.w3.org/2000/svg" xmlns:xlink="http://www.w3.org/1999/xlink" x="0px" y="0px"
	 width="429.972px" height="429.972px" viewBox="0 0 429.972 429.972" style="enable-background:new 0 0 429.972 429.972;"
	 xml:space="preserve">
<g>
	<g>
		<path d="M216.434,6.661h-2.607C144.849,2.759,92.783,26.189,92.783,26.189l-0.509,2.659
			c13.855,10.121,47.085,26.083,119.92,27.729c78.66,1.741,112.799-18.284,125.519-29.24l-0.225-1.148
			C337.48,26.189,285.412,2.759,216.434,6.661z M149.053,41.199c-4.959,3.388-10.361,4.131-12.055,1.649
			c-1.699-2.477,0.946-7.238,5.911-10.634c4.967-3.404,10.369-4.134,12.066-1.665C156.671,33.033,154.026,37.802,149.053,41.199z
			 M170.715,46.12c-4.972,3.396-10.374,4.125-12.066,1.649c-1.695-2.484,0.95-7.246,5.911-10.642
			c4.971-3.404,10.363-4.132,12.066-1.663C178.321,37.955,175.668,42.715,170.715,46.12z M172.326,25.972
			c-4.973,3.391-10.365,4.134-12.068,1.649c-1.693-2.477,0.952-7.252,5.919-10.642c4.959-3.396,10.361-4.131,12.066-1.655
			C179.93,17.801,177.285,22.576,172.326,25.972z M195.309,46.12c-4.959,3.396-10.361,4.125-12.058,1.649
			c-1.703-2.484,0.95-7.246,5.915-10.642c4.959-3.404,10.359-4.132,12.054-1.663C202.918,37.955,200.274,42.715,195.309,46.12z
			 M195.309,25.972c-4.959,3.391-10.361,4.134-12.058,1.649c-1.703-2.477,0.95-7.252,5.915-10.642
			c4.959-3.396,10.359-4.131,12.054-1.655C202.918,17.801,200.274,22.576,195.309,25.972z M221.531,48.819
			c-4.971,3.388-10.371,4.14-12.066,1.649c-1.705-2.469,0.95-7.246,5.911-10.65c4.959-3.396,10.361-4.124,12.06-1.647
			C229.131,40.653,226.491,45.43,221.531,48.819z M287.13,35.464c1.691,2.491-0.953,7.251-5.919,10.656
			c-4.961,3.396-10.358,4.125-12.062,1.649c-1.699-2.484,0.953-7.246,5.91-10.642C280.03,33.723,285.427,32.987,287.13,35.464z
			 M269.013,19.801c4.961-3.402,10.363-4.131,12.059-1.655s-0.95,7.259-5.911,10.64c-4.965,3.398-10.363,4.134-12.066,1.665
			C261.407,27.952,264.052,23.197,269.013,19.801z M249.753,46.12c-4.957,3.396-10.355,4.125-12.066,1.649
			c-1.699-2.484,0.954-7.246,5.919-10.642c4.97-3.404,10.367-4.132,12.059-1.663C257.375,37.955,254.714,42.715,249.753,46.12z
			 M241.996,19.801c4.961-3.402,10.358-4.131,12.054-1.655c1.699,2.477-0.945,7.259-5.911,10.64
			c-4.961,3.398-10.359,4.134-12.05,1.665C234.377,27.952,237.022,23.197,241.996,19.801z M223.946,28.786
			c-4.967,3.398-10.359,4.134-12.062,1.665c-1.697-2.499,0.948-7.253,5.911-10.658c4.961-3.402,10.359-4.132,12.05-1.655
			C231.556,20.623,228.911,25.405,223.946,28.786z"/>
		<path d="M413.862,291.336c-8.58-2.906-17.633-0.405-23.772,5.514l-48.73-252.301c-17.997,12.535-53.37,27.767-119.122,27.767
			c-3.28,0-6.643-0.046-10.073-0.122c-67.68-1.541-103.899-14.857-122.82-26.495L40.742,297.379
			c-6.255-6.685-16.106-9.394-25.253-6.035c-12.223,4.448-18.51,17.969-14.06,30.2c1.515,4.167,39.353,102.205,220.202,102.205
			c172.466,0,205.892-98.939,207.234-103.151C432.761,308.347,426.044,295.423,413.862,291.336z M321.803,114.71
			c-5.242-2.951-8.308-7.452-6.829-10.072c1.471-2.629,6.905-2.362,12.159,0.567c5.241,2.959,8.295,7.46,6.828,10.081
			C332.483,117.917,327.048,117.656,321.803,114.71z M329.132,141.23c-1.479,2.621-6.908,2.36-12.158-0.583
			c-5.242-2.943-8.312-7.46-6.828-10.081c1.471-2.615,6.912-2.362,12.158,0.581C327.545,134.093,330.611,138.607,329.132,141.23z
			 M313.884,76.364c1.479-2.621,6.925-2.36,12.175,0.583c5.245,2.943,8.295,7.46,6.824,10.081
			c-1.475,2.623-6.917,2.354-12.158-0.581C315.471,83.495,312.414,78.995,313.884,76.364z M312.827,122.103
			c-1.463,2.613-6.913,2.352-12.159-0.591c-5.237-2.943-8.295-7.444-6.832-10.066c1.482-2.629,6.917-2.36,12.162,0.569
			C311.24,114.957,314.305,119.472,312.827,122.103z M292.765,83.18c1.471-2.631,6.913-2.37,12.158,0.567
			c5.25,2.951,8.304,7.466,6.829,10.088c-1.479,2.621-6.913,2.354-12.158-0.583C294.352,90.301,291.283,85.787,292.765,83.18z
			 M268.248,85.342c1.471-2.623,6.913-2.354,12.159,0.581c5.241,2.952,8.303,7.452,6.828,10.066
			c-1.479,2.637-6.913,2.377-12.158-0.559C269.843,92.479,266.773,87.963,268.248,85.342z M288.325,124.271
			c-1.471,2.623-6.917,2.354-12.166-0.581c-5.238-2.946-8.296-7.46-6.833-10.083c1.482-2.621,6.917-2.36,12.163,0.583
			C286.738,117.133,289.804,121.642,288.325,124.271z M242.372,90.348c1.475-2.615,6.917-2.36,12.159,0.583
			c5.254,2.952,8.303,7.466,6.832,10.081c-1.471,2.623-6.916,2.362-12.158-0.575C243.966,97.485,240.901,92.962,242.372,90.348z
			 M262.449,129.278c-1.463,2.615-6.912,2.354-12.158-0.583c-5.242-2.943-8.295-7.466-6.828-10.081
			c1.479-2.615,6.912-2.362,12.158,0.589C260.862,122.141,263.923,126.655,262.449,129.278z M176.867,88.945
			c5.248-2.951,10.688-3.212,12.162-0.583c1.469,2.623-1.593,7.137-6.829,10.081c-5.251,2.938-10.692,3.206-12.161,0.583
			C168.565,96.419,171.617,91.888,176.867,88.945z M150.986,83.938c5.25-2.943,10.694-3.196,12.163-0.581
			c1.475,2.629-1.587,7.129-6.831,10.089c-5.251,2.943-10.696,3.196-12.165,0.567C142.687,91.406,145.741,86.883,150.986,83.938z
			 M148.662,112.204c5.244-2.943,10.684-3.204,12.159-0.583c1.477,2.615-1.583,7.131-6.827,10.075
			c-5.244,2.951-10.694,3.204-12.163,0.591C140.363,119.664,143.418,115.142,148.662,112.204z M126.483,81.77
			c5.244-2.951,10.688-3.206,12.165-0.583c1.475,2.621-1.587,7.137-6.833,10.081c-5.25,2.93-10.69,3.204-12.158,0.575
			C118.182,89.228,121.239,84.713,126.483,81.77z M129.493,119.526c-5.244,2.943-10.686,3.204-12.163,0.583
			c-1.477-2.623,1.587-7.129,6.831-10.081c5.244-2.945,10.688-3.206,12.163-0.575C137.792,112.066,134.736,116.582,129.493,119.526z
			 M105.352,74.961c5.251-2.952,10.694-3.204,12.163-0.591c1.475,2.631-1.587,7.145-6.831,10.083
			c-5.252,2.943-10.696,3.204-12.163,0.583C97.053,82.413,100.108,77.896,105.352,74.961z M103.03,103.228
			c5.242-2.944,10.682-3.198,12.158-0.583c1.475,2.623-1.583,7.129-6.829,10.075c-5.242,2.943-10.686,3.204-12.163,0.575
			C94.722,110.687,97.784,106.163,103.03,103.228z M99.858,169.25c-5.244,2.938-10.686,3.198-12.163,0.575
			c-1.475-2.615,1.587-7.137,6.831-10.072c5.244-2.946,10.692-3.214,12.159-0.583C108.153,161.79,105.102,166.306,99.858,169.25z
			 M95.478,141.575c-1.477-2.621,1.587-7.146,6.831-10.075c5.244-2.944,10.684-3.204,12.159-0.589
			c1.475,2.621-1.587,7.129-6.831,10.073C102.393,143.929,96.946,144.189,95.478,141.575z M120.991,176.058
			c-5.244,2.936-10.693,3.204-12.162,0.582c-1.477-2.621,1.587-7.137,6.831-10.081c5.244-2.944,10.686-3.204,12.154-0.583
			C129.291,168.599,126.235,173.107,120.991,176.058z M128.761,147.792c-5.244,2.943-10.692,3.196-12.152,0.575
			c-1.475-2.623,1.587-7.129,6.831-10.067c5.246-2.951,10.692-3.204,12.161-0.589C137.067,140.34,134.005,144.849,128.761,147.792z
			 M145.492,178.227c-5.244,2.945-10.694,3.214-12.163,0.577c-1.475-2.623,1.587-7.131,6.831-10.074
			c5.251-2.943,10.684-3.204,12.158-0.583C153.788,170.769,150.736,175.283,145.492,178.227z M153.271,149.97
			c-5.252,2.936-10.692,3.196-12.159,0.573c-1.477-2.621,1.587-7.137,6.831-10.073c5.244-2.951,10.69-3.212,12.15-0.591
			C161.57,142.51,158.506,147.024,153.271,149.97z M171.375,183.234c-5.244,2.943-10.694,3.212-12.159,0.583
			c-1.481-2.623,1.583-7.129,6.827-10.083c5.244-2.943,10.694-3.204,12.163-0.573C179.674,175.774,176.61,180.291,171.375,183.234z
			 M179.145,154.975c-5.251,2.944-10.692,3.198-12.158,0.583c-1.477-2.631,1.587-7.131,6.831-10.074
			c5.244-2.952,10.689-3.212,12.158-0.583C187.442,147.507,184.388,152.04,179.145,154.975z M179.876,126.701
			c-5.244,2.946-10.694,3.206-12.159,0.591c-1.486-2.623,1.575-7.137,6.827-10.081c5.243-2.945,10.688-3.206,12.162-0.591
			C188.175,119.243,185.112,123.766,179.876,126.701z M199.729,183.035c-5.244,2.944-10.692,3.204-12.159,0.582
			c-1.477-2.613,1.587-7.129,6.831-10.081c5.244-2.936,10.682-3.196,12.159-0.567C208.028,175.582,204.973,180.09,199.729,183.035z
			 M207.509,154.769c-5.244,2.943-10.686,3.204-12.163,0.589c-1.467-2.621,1.587-7.145,6.831-10.089
			c5.244-2.943,10.696-3.196,12.163-0.575C215.809,147.317,212.753,151.832,207.509,154.769z M208.23,126.519
			c-5.244,2.936-10.69,3.188-12.159,0.573c-1.477-2.621,1.587-7.129,6.831-10.073s10.689-3.204,12.158-0.575
			C216.538,119.042,213.474,123.565,208.23,126.519z M210.553,98.236c-5.244,2.943-10.69,3.204-12.158,0.591
			c-1.475-2.623,1.579-7.137,6.831-10.075c5.244-2.951,10.684-3.212,12.158-0.589C218.852,90.785,215.801,95.309,210.553,98.236z
			 M221.639,148.896c3.438-4.929,8.214-7.536,10.683-5.827c2.468,1.733,1.687,7.115-1.74,12.052
			c-3.438,4.937-8.219,7.544-10.684,5.833C217.421,159.237,218.201,153.841,221.639,148.896z M232.421,184.169
			c-3.435,4.937-8.213,7.55-10.68,5.841c-2.471-1.733-1.685-7.121,1.741-12.05c3.44-4.937,8.209-7.552,10.686-5.835
			C236.637,173.842,235.856,179.232,232.421,184.169z M232.421,127.007c-3.435,4.938-8.213,7.544-10.68,5.843
			c-2.471-1.717-1.685-7.123,1.741-12.06c3.44-4.929,8.209-7.542,10.686-5.833C236.637,116.688,235.856,122.07,232.421,127.007z
			 M232.421,98.749c-3.435,4.937-8.213,7.552-10.68,5.835c-2.471-1.733-1.685-7.115,1.741-12.058
			c3.44-4.938,8.209-7.536,10.686-5.827C236.637,88.416,235.856,93.82,232.421,98.749z M238.625,144.556
			c1.479-2.621,6.913-2.353,12.159,0.583c5.249,2.943,8.312,7.444,6.828,10.066c-1.462,2.629-6.912,2.369-12.158-0.575
			C240.22,151.687,237.158,147.171,238.625,144.556z M266.4,183.817c-1.466,2.629-6.916,2.36-12.158-0.583
			c-5.246-2.943-8.295-7.46-6.832-10.073c1.471-2.631,6.916-2.371,12.158,0.573C264.814,176.688,267.879,181.194,266.4,183.817z
			 M264.505,139.551c1.479-2.629,6.924-2.369,12.166,0.575c5.254,2.943,8.304,7.459,6.824,10.081
			c-1.475,2.615-6.916,2.354-12.158-0.589C266.091,146.672,263.035,142.158,264.505,139.551z M292.281,178.817
			c-1.471,2.631-6.913,2.363-12.159-0.583c-5.237-2.943-8.295-7.458-6.828-10.081c1.479-2.623,6.912-2.36,12.158,0.583
			C290.693,171.68,293.751,176.188,292.281,178.817z M289.006,137.367c1.479-2.623,6.917-2.362,12.167,0.581
			c5.245,2.945,8.303,7.452,6.824,10.075c-1.471,2.629-6.917,2.376-12.158-0.567C290.601,144.51,287.543,139.988,289.006,137.367z
			 M316.782,176.64c-1.463,2.623-6.913,2.354-12.158-0.582c-5.234-2.951-8.296-7.459-6.829-10.083
			c1.471-2.621,6.905-2.36,12.158,0.583C315.195,169.502,318.26,174.019,316.782,176.64z M337.917,169.825
			c-1.479,2.623-6.912,2.362-12.158-0.575c-5.241-2.943-8.308-7.459-6.829-10.081c1.472-2.631,6.913-2.362,12.159,0.583
			C336.33,162.688,339.383,167.21,337.917,169.825z"/>
	</g>
</g>
<g>
</g>
<g>
</g>
<g>
</g>
<g>
</g>
<g>
</g>
<g>
</g>
<g>
</g>
<g>
</g>
<g>
</g>
<g>
</g>
<g>
</g>
<g>
</g>
<g>
</g>
<g>
</g>
<g>
</g>
</svg>
