<?xml version="1.0" encoding="iso-8859-1"?>
<!-- Generator: Adobe Illustrator 16.0.0, SVG Export Plug-In . SVG Version: 6.00 Build 0)  -->
<!DOCTYPE svg PUBLIC "-//W3C//DTD SVG 1.1//EN" "http://www.w3.org/Graphics/SVG/1.1/DTD/svg11.dtd">
<svg version="1.1" id="Capa_1" xmlns="http://www.w3.org/2000/svg" xmlns:xlink="http://www.w3.org/1999/xlink" x="0px" y="0px"
	 width="316.223px" height="316.223px" viewBox="0 0 316.223 316.223" style="enable-background:new 0 0 316.223 316.223;"
	 xml:space="preserve">
<g>
	<g>
		<path d="M41.749,309.195c1.646,12.614,31.799,4.386,62.5,4.386c27.682,0,49.503,0,53.526,0c0.44,0,0.673,0,0.673,0
			c3.019,0,16.053,0,34.062,0c2.004,0,8.26-22.012,12.961-35.594c12.914-72.137,34.833-143.292,34.554-217.134
			c-0.021-4.241,6.561-4.241,6.576,0c0.29,75.264-22.281,147.768-35.222,221.313c-0.419,13.483-1.642,31.421,0.601,31.421
			c30.701,0,60.849,8.223,62.495-4.381c1.646-12.614,1.646-35.087,10.418-67.988c8.767-32.887,17.544-121.158-23.026-241.213
			c0,0-8.55,1.636-21.428,3.7c4.873,13.134,6.649,26.895,6.162,41.068c-0.145,4.23-6.721,4.241-6.581,0
			c0.481-13.792-1.145-27.281-6.136-40.04c-21.728,3.324-52.025,7.192-75.772,7.229C116.376,11.896,54.358,0,54.358,0
			C13.792,120.06,22.559,208.326,31.331,241.218C40.107,274.108,40.107,296.587,41.749,309.195z"/>
	</g>
</g>
<g>
</g>
<g>
</g>
<g>
</g>
<g>
</g>
<g>
</g>
<g>
</g>
<g>
</g>
<g>
</g>
<g>
</g>
<g>
</g>
<g>
</g>
<g>
</g>
<g>
</g>
<g>
</g>
<g>
</g>
</svg>
