<?xml version="1.0" encoding="iso-8859-1"?>
<!-- Generator: Adobe Illustrator 16.0.0, SVG Export Plug-In . SVG Version: 6.00 Build 0)  -->
<!DOCTYPE svg PUBLIC "-//W3C//DTD SVG 1.1//EN" "http://www.w3.org/Graphics/SVG/1.1/DTD/svg11.dtd">
<svg version="1.1" id="Capa_1" xmlns="http://www.w3.org/2000/svg" xmlns:xlink="http://www.w3.org/1999/xlink" x="0px" y="0px"
	 width="486.724px" height="486.724px" viewBox="0 0 486.724 486.724" style="enable-background:new 0 0 486.724 486.724;"
	 xml:space="preserve">
<g>
	<g>
		<path d="M214.191,237.297c-0.583,4.078-0.92,8.357-0.92,12.826c0,15.079,3.493,28.196,9.229,37.365l-10.399,32.007h-56.623
			c-24.598,0-28.405,11.722-8.502,26.173l45.807,33.281l-17.5,53.856c-7.6,23.391,2.37,30.624,22.265,16.174l45.813-33.286
			l45.809,33.278c19.901,14.458,29.876,7.217,22.262-16.183l-17.501-53.848l45.813-33.282c19.9-14.458,16.09-26.172-8.512-26.172
			h-56.621l-10.396-32.008c5.734-9.177,9.229-22.293,9.229-37.365c0-4.476-0.337-8.748-0.922-12.825
			c157.215-11.079,214.201-112.076,214.201-206.986h-15.701c0,111.336-76.835,183.089-202.348,191.495
			c-5.257-13.872-14.427-22.71-25.314-22.71c-10.882,0-20.051,8.839-25.311,22.71C92.533,213.401,15.701,141.648,15.701,30.304H0
			C0,125.213,56.983,226.211,214.191,237.297z M243.361,214.79c2.517,0,5.582,2.859,8.251,7.714
			c-2.736,0.058-5.462,0.134-8.251,0.134c-2.787,0-5.512-0.076-8.25-0.134C237.78,217.649,240.842,214.79,243.361,214.79z
			 M230.04,238.087c4.386,0.134,8.791,0.252,13.321,0.252c4.532,0,8.94-0.118,13.325-0.252c0.629,3.699,1.065,7.672,1.065,12.028
			c0,4.978-0.513,9.521-1.311,13.617c-7.405-20.762-18.749-20.762-26.158,0c-0.802-4.104-1.311-8.64-1.311-13.617
			C228.972,245.759,229.405,241.793,230.04,238.087z"/>
	</g>
</g>
<g>
</g>
<g>
</g>
<g>
</g>
<g>
</g>
<g>
</g>
<g>
</g>
<g>
</g>
<g>
</g>
<g>
</g>
<g>
</g>
<g>
</g>
<g>
</g>
<g>
</g>
<g>
</g>
<g>
</g>
</svg>
