<svg width="15px" height="28px" viewBox="0 0 17 31" fill="none" xmlns="http://www.w3.org/2000/svg">
<path fill-rule="evenodd" clip-rule="evenodd" d="M2.63051 1.28112C2.44309 1.09371 2.2182 1 1.95581 1C1.69343 1 1.46854 1.09371 1.28112 1.28112C1.20615 1.33735 1.14993 1.40294 1.11245 1.47791C1.07497 1.55287 1.04685 1.63252 1.02811 1.71686C1.00937 1.8012 1 1.88553 1 1.96987C1 2.05421 1.00937 2.13386 1.02811 2.20882C1.04685 2.28379 1.07497 2.35876 1.11245 2.43372C1.14993 2.50869 1.20615 2.58365 1.28112 2.65862L14.1003 15.4778L1.44979 28.1283C1.33735 28.2407 1.2577 28.3813 1.21084 28.5499C1.16399 28.7186 1.16399 28.8873 1.21084 29.056C1.2577 29.2246 1.33735 29.3652 1.44979 29.4777C1.63721 29.6651 1.86679 29.7588 2.13854 29.7588C2.4103 29.7588 2.63988 29.6651 2.82729 29.4777L16.1525 16.1525C16.3399 15.9651 16.4336 15.7402 16.4336 15.4778C16.4336 15.2154 16.3399 14.9905 16.1525 14.8031L2.63051 1.28112Z" fill="#1A1A1A" stroke="#1A1A1A"/>
</svg>
