<svg width="30" height="30" viewBox="0 0 30 30" fill="none" xmlns="http://www.w3.org/2000/svg">
<path d="M14.5047 3C10.3591 3 7 6.34559 7 10.4897C7 17.6552 14.5047 27 14.5047 27C14.5047 27 22.0094 17.6537 22.0094 10.4897C22.0094 6.34709 18.6503 3 14.5047 3ZM14.5047 14.6338C13.4299 14.6338 12.3991 14.2068 11.6391 13.4468C10.8791 12.6868 10.4522 11.656 10.4522 10.5812C10.4522 9.50644 10.8791 8.47566 11.6391 7.71566C12.3991 6.95567 13.4299 6.52871 14.5047 6.52871C15.5795 6.52871 16.6103 6.95567 17.3703 7.71566C18.1303 8.47566 18.5572 9.50644 18.5572 10.5812C18.5572 11.656 18.1303 12.6868 17.3703 13.4468C16.6103 14.2068 15.5795 14.6338 14.5047 14.6338Z" fill="#BABABA"/>
</svg>
